{
  "resultCode": "00",
  "resultMsg": "NORMAL_SERVICE",
  "list": [
    {
      "idx": 1,
      "no": 1,
      "voteTitle": "201동대표 선거 안내",
      "vStartDTime": "2021-09-01 09:00",
      "vEndDTime": "2021-09-07 06:00",
      "voteRate": 75,
      "vEndFlag": "Y",
      "userCode": "관리자"
    },
    {
      "idx": 2,
      "no": 2,
      "voteTitle": "102동대표 선거 안내",
      "vStartDTime": "2021-08-01 09:00",
      "vEndDTime": "2021-08-07 06:00",
      "voteRate": 60,
      "vEndFlag": "Y",
      "userCode": "관리자"
    },
    {
      "idx": 5,
      "no": 3,
      "voteTitle": "SKt 통신불량 조사",
      "vStartDTime": "2021-10-01 09:00",
      "vEndDTime": "2021-10-07 08:00",
      "voteRate": 0,
      "vEndFlag": "N",
      "userCode": "관리자"
    },
    {
      "idx": 6,
      "no": 4,
      "voteTitle": "입주자 대표 선거 안내",
      "vStartDTime": "2021-09-26 07:00",
      "vEndDTime": "2021-09-30 12:00",
      "voteRate": 0,
      "vEndFlag": "N",
      "userCode": "관리자"
    },
    {
      "idx": 76,
      "no": 5,
      "voteTitle": "테스트투표1",
      "vStartDTime": "2022-09-29 09:00",
      "vEndDTime": "2022-10-02 06:00",
      "voteRate": 0,
      "vEndFlag": "N",
      "userCode": "tester"
    },
    {
      "idx": 77,
      "no": 6,
      "voteTitle": "테스트투표2",
      "vStartDTime": "2022-09-29 09:00",
      "vEndDTime": "2022-10-02 06:00",
      "voteRate": 0,
      "vEndFlag": "N",
      "userCode": "tester"
    },
    {
      "idx": 78,
      "no": 7,
      "voteTitle": "테스트투표3",
      "vStartDTime": "2022-09-29 09:00",
      "vEndDTime": "2022-10-02 06:00",
      "voteRate": 0,
      "vEndFlag": "N",
      "userCode": "tester"
    },
    {
      "idx": 79,
      "no": 8,
      "voteTitle": "테스트투표3",
      "vStartDTime": "2022-09-29 09:00",
      "vEndDTime": "2022-10-02 06:00",
      "voteRate": 0,
      "vEndFlag": "N",
      "userCode": "tester"
    },
    {
      "idx": 80,
      "no": 9,
      "voteTitle": "수정함",
      "vStartDTime": "2030-09-01 09:00",
      "vEndDTime": "2030-09-01 09:00",
      "voteRate": 0,
      "vEndFlag": "N",
      "userCode": "tester"
    },
    {
      "idx": 81,
      "no": 10,
      "voteTitle": "테스트투표10",
      "vStartDTime": "2022-09-29 09:00",
      "vEndDTime": "2022-10-02 06:00",
      "voteRate": 0,
      "vEndFlag": "N",
      "userCode": "tester"
    }
  ],
  "paging": {
    "totalCount": 13,
    "total_page": 2,
    "page": "1",
    "start_page": 1,
    "end_page": 2,
    "ipp": "10"
  }
}
